C:\Users\ugles\Desktop\DataBac1\Prog2\Oblik3\src\main\java\CardGame\App.java
C:\Users\ugles\Desktop\DataBac1\Prog2\Oblik3\src\main\java\CardGame\PlayingCard.java
C:\Users\ugles\Desktop\DataBac1\Prog2\Oblik3\src\main\java\CardGame\Hand.java
C:\Users\ugles\Desktop\DataBac1\Prog2\Oblik3\src\main\java\CardGame\Controllers\GameController.java
C:\Users\ugles\Desktop\DataBac1\Prog2\Oblik3\src\main\java\CardGame\DeckOfCards.java
